Cape Epic 2025 Analysis – STUDYSTATS
…
Taiwan
4

6

Table 4 is sorted by the highest per capita of riders. Very small countries naturally skew results, however, teams from Switzerland, Namibia, Costa Rica and New Zealand deserve a special mention

How well does prologue result predict overall result?

We all know the saying “You don’t win on the prologue, but you can lose”, to me this is essentially saying, your prologue doesn’t predict your overall performance.

$data
# A tibble: 528 × 40
   cumulative_time.x rider    nationality.x team  number.x team_number.x stage.x
   <Period>          <chr>    <chr>         <chr> <chr>            <dbl> <fct>  
 1 59M 45S           Luca BR… it            WILI… 9-1                  9 Prolog…
 2 1H 0M 5S          Nino SC… ch            SCOT… 2-1                  2 Prolog…
 3 1H 0M 49S         Marc PR… za            Hone… 39-1                39 Prolog…
 4 1H 0M 55S         Marco J… za            Imbu… 17-1                17 Prolog…
 5 1H 1M 0S          Craig O… nz            Mito… 37-1                37 Prolog…
 6 1H 1M 15S         Lukas B… de            ORBE… 15-1                15 Prolog…
 7 1H 2M 4S          Jakob D… it            Torp… 13-1                13 Prolog…
 8 1H 2M 18S         Matthew… za            Outr… 1-1                  1 Prolog…
 9 1H 2M 39S         Samuele… it            Klim… 4-1                  4 Prolog…
10 1H 2M 43S         David V… es            BH C… 11-1                11 Prolog…
# ℹ 518 more rows
# ℹ 33 more variables: time.x <time>, bg_color.x <chr>, row_number.x <int>,
#   team_population.x <int>, category.x <chr>, country_name.x <chr>,
#   continent.x <chr>, hemisphere.x <chr>, elapsed_time.x <Period>,
#   elapsed_time_seconds.x <dbl>, elapsed_time_minutes.x <dbl>,
#   cumulative_seconds.x <dbl>, cumulative_minutes.x <dbl>, position.x <int>,
#   cumulative_time.y <Period>, nationality.y <chr>, number.y <chr>, …
…
Stage 7
0.90
0.78

Overall
0.94
0.87

Table 5 shows two metrics , Spearman’s correlation and R^2. These two metrics show that prologue positions and overall position are quite strongly correlated, although this correlation decreased over the stages. Neither of these metrics account for small changes in position, which may not show well when analyzing all riders, but for the individual riders, it is quite important.”

$data
# A tibble: 808 × 6
   tolerance   AUC Accuracy Precision stage   stage_number
       <int> <dbl>    <dbl>     <dbl> <chr>   <chr>       
 1         0 0.576   0.0103    0.0103 Stage 1 1           
 2         1 0.674   0.0426    0.0426 Stage 1 1           
 3         2 0.655   0.0617    0.0617 Stage 1 1           
 4         3 0.717   0.0940    0.0940 Stage 1 1           
 5         4 0.714   0.116     0.116  Stage 1 1           
 6         5 0.714   0.137     0.137  Stage 1 1           
 7         6 0.719   0.156     0.156  Stage 1 1           
 8         7 0.716   0.167     0.167  Stage 1 1           
 9         8 0.717   0.184     0.184  Stage 1 1           
10         9 0.716   0.204     0.204  Stage 1 1           
# ℹ 798 more rows
…
